[
	{
		"_id": "a-50",
		"_parentId": "co-50",
		"_type": "article",
		"_classes": "banner_01",
		"title": "a-50",
		"displayTitle": "",
		"body": ""
	},
    {
		"_id": "a-100",
		"_parentId": "co-100",
		"_type": "article",
		"_classes": "banner_02",
		"title": "a-100",
		"displayTitle": "",
		"body": ""
	},
    {
		"_id": "a-150",
		"_parentId": "co-150",
		"_type": "article",
		"_classes": "banner_03",
		"title": "a-150",
		"displayTitle": "",
		"body": ""
	},
    {
		"_id": "a-200",
		"_parentId": "co-200",
		"_type": "article",
		"_classes": "banner_04",
		"title": "a-200",
		"displayTitle": "",
		"body": ""
	},
    {
		"_id": "a-250",
		"_parentId": "co-250",
		"_type": "article",
		"_classes": "banner_05",
		"title": "a-250",
		"displayTitle": "",
		"body": ""
	},
    {
		"_id": "a-300",
		"_parentId": "co-300",
		"_type": "article",
		"_classes": "banner_06",
		"title": "a-300",
		"displayTitle": "",
		"body": ""
	}
	
]
